{
	"info": {
		"_postman_id": "8fb96bfb-b904-4102-8804-f32e7aed329c",
		"name": "Test Collection",
		"schema": "https://schema.getpostman.com/json/collection/v2.1.0/collection.json",
		"_exporter_id": "23609195"
	},
	"item": [
		{
			"name": "Get all Cities",
			"event": [
				{
					"listen": "test",
					"script": {
						"exec": [
							"pm.test(\"Status code is 200\", function () {",
							"    pm.response.to.have.status(200);",
							"});",
							"",
							"const schema = {",
							"     \"cities\": [",
							"        {",
							"            \"city_id\": \"10615459\",",
							"            \"city_name\": \"Huntsville\",",
							"            \"city_population\": 180105,",
							"            \"city_walk_score_url\": \"https://www.walkscore.com/AL/Huntsville\",",
							"            \"city_budget\": 5,",
							"            \"city_safety\": 3,",
							"            \"city_covid\": 10.3,",
							"            \"city_avg_rating\": 3.0,",
							"            \"city_known_for\": [{ \"id\": \"14\", \"type\": \"known_for\" }]",
							"        }",
							"    ]",
							"}",
							"",
							"pm.test(\"Validate schema\", () => {",
							"pm.response.to.have.jsonSchema(schema);",
							"});"
						],
						"type": "text/javascript"
					}
				}
			],
			"request": {
				"method": "GET",
				"header": [],
				"url": {
					"raw": "https://outnabout.p3eas2rb02ene.us-east-2.cs.amazonlightsail.com/api/cities",
					"protocol": "https",
					"host": [
						"outnabout",
						"p3eas2rb02ene",
						"us-east-2",
						"cs",
						"amazonlightsail",
						"com"
					],
					"path": [
						"api",
						"cities"
					]
				}
			},
			"response": []
		},
		{
			"name": "Get all Restaurants",
			"event": [
				{
					"listen": "test",
					"script": {
						"exec": [
							"pm.test(\"Status code is 200\", function () {",
							"    pm.response.to.have.status(200);",
							"});",
							"const schema = {",
							"    \"restaurants\": [",
							"        {",
							"            \"rest_id\": \"NHWglTfweIIqnBzHxmRHJA\",",
							"            \"rest_name\": \"Char Restaurant\",",
							"            \"rest_type\": \"Steakhouses\",",
							"            \"rest_rating\": 4.5,",
							"            \"rest_review_count\": 185,",
							"            \"rest_pricing\": \"$$\",",
							"            \"rest_image_url\": \"https://s3-media3.fl.yelpcdn.com/bphoto/46xQDpVUM_LXzpB895h2EQ/o.jpg\",",
							"            \"rest_city\": \"Huntsville\",",
							"            \"rest_state\": \"AL\",",
							"            \"rest_address\": [",
							"                \"931 Bob Wallace Ave SW\",",
							"                \"Ste 201\",",
							"                \"Huntsville, AL 35801\"",
							"            ],",
							"            \"rest_transactions\": [",
							"            \"pickup\",",
							"            \"delivery\"",
							"            ],",
							"            \"rest_hours\": [",
							"                    {",
							"                        \"is_overnight\": false,",
							"                        \"start\": \"1100\",",
							"                        \"end\": \"2200\",",
							"                        \"day\": 0",
							"                    },",
							"                    {",
							"                        \"is_overnight\": false,",
							"                        \"start\": \"1100\",",
							"                        \"end\": \"2200\",",
							"                        \"day\": 1",
							"                    },",
							"                    {",
							"                        \"is_overnight\": false,",
							"                        \"start\": \"1100\",",
							"                        \"end\": \"2200\",",
							"                        \"day\": 2",
							"                    },",
							"                    {",
							"                        \"is_overnight\": false,",
							"                        \"start\": \"1100\",",
							"                        \"end\": \"2200\",",
							"                        \"day\": 3",
							"                    },",
							"                    {",
							"                        \"is_overnight\": false,",
							"                        \"start\": \"1100\",",
							"                        \"end\": \"2200\",",
							"                        \"day\": 4",
							"                    },",
							"                    {",
							"                        \"is_overnight\": false,",
							"                        \"start\": \"1100\",",
							"                        \"end\": \"2200\",",
							"                        \"day\": 5",
							"                    },",
							"                    {",
							"                        \"is_overnight\": false,",
							"                        \"start\": \"1000\",",
							"                        \"end\": \"2100\",",
							"                        \"day\": 6",
							"                    }",
							"                ],",
							"            \"rest_website\": \"https://www.yelp.com/biz/char-restaurant-huntsville-3?adjust_creative=jyHqAED2lIJq04gnkPNXNQ&utm_campaign=yelp_api_v3&utm_medium=api_v3_business_lookup&utm_source=jyHqAED2lIJq04gnkPNXNQ\" ",
							"        }",
							"    ]",
							"}",
							"",
							"pm.test(\"Validate schema\", () => {",
							"pm.response.to.have.jsonSchema(schema);",
							"});"
						],
						"type": "text/javascript"
					}
				}
			],
			"request": {
				"method": "GET",
				"header": [],
				"url": {
					"raw": "https://outnabout.p3eas2rb02ene.us-east-2.cs.amazonlightsail.com/api/restaurants",
					"protocol": "https",
					"host": [
						"outnabout",
						"p3eas2rb02ene",
						"us-east-2",
						"cs",
						"amazonlightsail",
						"com"
					],
					"path": [
						"api",
						"restaurants"
					]
				}
			},
			"response": []
		},
		{
			"name": "Get all Events",
			"event": [
				{
					"listen": "test",
					"script": {
						"exec": [
							"pm.test(\"Status code is 200\", function () {",
							"    pm.response.to.have.status(200);",
							"});",
							"const schema = {",
							"    \"events\": [",
							"        {",
							"            \"event_id\": \"Z7r9jZ1AdGMZ9\",",
							"            \"event_name\": \"Texas Longhorns Football vs. TCU Horned Frogs Footbal\",",
							"            \"event_city\": \"Austin\",",
							"            \"event_venue\": \"Darrell K Royal - Memorial Stadium\",",
							"            \"event_type\": \"Sports\",",
							"            \"event_time\": \"TBA\",",
							"            \"event_date\": \"2022-11-12\",",
							"            \"event_state\": \"Texas\",",
							"            \"event_address\": \"University of Texas\",",
							"            \"event_url\": \"https://www.ticketmaster.com/event/Z7r9jZ1AdGMZ9\"",
							"        }",
							"    ]",
							"}",
							"",
							"pm.test(\"Validate schema\", () => {",
							"pm.response.to.have.jsonSchema(schema);",
							"});"
						],
						"type": "text/javascript"
					}
				}
			],
			"request": {
				"method": "GET",
				"header": [],
				"url": {
					"raw": "https://outnabout.p3eas2rb02ene.us-east-2.cs.amazonlightsail.com/api/events",
					"protocol": "https",
					"host": [
						"outnabout",
						"p3eas2rb02ene",
						"us-east-2",
						"cs",
						"amazonlightsail",
						"com"
					],
					"path": [
						"api",
						"events"
					]
				}
			},
			"response": []
		},
		{
			"name": "Get city by id",
			"event": [
				{
					"listen": "test",
					"script": {
						"exec": [
							"pm.test(\"Status code is 200\", function () {",
							"    pm.response.to.have.status(200);",
							"});",
							"const responseJson = pm.response.json();",
							"pm.test(\"Body contains string\",() => {",
							"  pm.expect(pm.response.text()).to.include(\"Huntsville\");",
							"});",
							"pm.test(\"Body contains string\",() => {",
							"  pm.expect(pm.response.text()).to.include(\"Alabama\");",
							"});"
						],
						"type": "text/javascript"
					}
				}
			],
			"request": {
				"method": "GET",
				"header": [],
				"url": {
					"raw": "https://outnabout.p3eas2rb02ene.us-east-2.cs.amazonlightsail.com/api/cities/id=10615459",
					"protocol": "https",
					"host": [
						"outnabout",
						"p3eas2rb02ene",
						"us-east-2",
						"cs",
						"amazonlightsail",
						"com"
					],
					"path": [
						"api",
						"cities",
						"id=10615459"
					]
				}
			},
			"response": []
		},
		{
			"name": "Get restaurant by id",
			"event": [
				{
					"listen": "test",
					"script": {
						"exec": [
							"pm.test(\"Status code is 200\", function () {",
							"    pm.response.to.have.status(200);",
							"});",
							"const responseJson = pm.response.json();",
							"pm.test(\"Body contains string\",() => {",
							"  pm.expect(pm.response.text()).to.include(\"Steakhouses\");",
							"});",
							"pm.test(\"Body contains string\",() => {",
							"  pm.expect(pm.response.text()).to.include(\"Char Restaurant\");",
							"});"
						],
						"type": "text/javascript"
					}
				}
			],
			"request": {
				"method": "GET",
				"header": [],
				"url": {
					"raw": "https://outnabout.p3eas2rb02ene.us-east-2.cs.amazonlightsail.com/api/restaurants/id=NHWglTfweIIqnBzHxmRHJA",
					"protocol": "https",
					"host": [
						"outnabout",
						"p3eas2rb02ene",
						"us-east-2",
						"cs",
						"amazonlightsail",
						"com"
					],
					"path": [
						"api",
						"restaurants",
						"id=NHWglTfweIIqnBzHxmRHJA"
					]
				}
			},
			"response": []
		},
		{
			"name": "Get event by id",
			"event": [
				{
					"listen": "test",
					"script": {
						"exec": [
							"pm.test(\"Status code is 200\", function () {",
							"    pm.response.to.have.status(200);",
							"});",
							"const responseJson = pm.response.json();",
							"pm.test(\"Body contains string\",() => {",
							"  pm.expect(pm.response.text()).to.include(\"Texas Longhorns Football vs. TCU Horned Frogs Football\");",
							"});",
							"pm.test(\"Body contains string\",() => {",
							"  pm.expect(pm.response.text()).to.include(\"Darrell K Royal - Memorial Stadium\");",
							"});"
						],
						"type": "text/javascript"
					}
				}
			],
			"request": {
				"method": "GET",
				"header": [],
				"url": {
					"raw": "https://outnabout.p3eas2rb02ene.us-east-2.cs.amazonlightsail.com/api/events/id=Z7r9jZ1AdGMZ9",
					"protocol": "https",
					"host": [
						"outnabout",
						"p3eas2rb02ene",
						"us-east-2",
						"cs",
						"amazonlightsail",
						"com"
					],
					"path": [
						"api",
						"events",
						"id=Z7r9jZ1AdGMZ9"
					]
				}
			},
			"response": []
		}
	]
}